<?xml version="1.0" encoding="utf-8"?>
<!-- Generator: Adobe Illustrator 19.2.1, SVG Export Plug-In . SVG Version: 6.00 Build 0)  -->
<svg version="1.1" id="Layer_1" xmlns="http://www.w3.org/2000/svg" xmlns:xlink="http://www.w3.org/1999/xlink" x="0px" y="0px"
	 viewBox="0 0 242 86.7" style="enable-background:new 0 0 242 86.7;" xml:space="preserve">
<style type="text/css">
	.st0{fill:#FFFFFF;}
</style>
<g>
	<g>
		<path class="st0" d="M3.9,63.3l8.2-42.6h12.5l-8.2,42.6H3.9z M13.7,9.3C13.9,5.1,17,2.2,21,2.2c3.6,0,6.3,2.4,6.3,6.2
			c0,4.4-3.3,7.1-7.4,7.1C16.4,15.4,13.7,13.1,13.7,9.3z"/>
		<path class="st0" d="M34.1,5.7c3.8-0.9,9.7-1.5,15.3-1.5c5.3,0,11.3,0.9,15.6,3.9c3.9,2.7,6.3,6.8,6.3,12.4c0,7.4-3.3,13-8,16.6
			c-4.8,3.8-11.6,5.4-18.7,5.4c-2.1,0-3.8-0.2-5.1-0.3l-4.1,21.2H23.1L34.1,5.7z M41.4,32c1.4,0.3,2.7,0.5,4.8,0.5
			c7.6,0,12.5-4.8,12.5-10.7c0-5.6-4.1-7.6-8.9-7.6c-2.4,0-4.1,0.2-5,0.5L41.4,32z"/>
		<path class="st0" d="M101.7,60.9c-5,2.6-11.2,3.3-15.9,3.3c-12.2,0-18.4-7-18.4-18c0-13,9.4-26.4,24.8-26.4
			c8.6,0,14.8,4.8,14.8,12.7c0,10.9-10.6,14.8-27.7,14.4c0,1.2,0.5,3.2,1.4,4.4c1.7,2.1,4.5,3.3,8.2,3.3c4.7,0,8.5-1.1,11.9-2.7
			L101.7,60.9z M90.6,29c-5.9,0-9.2,4.8-10,8.8c9.8,0.2,14.7-1.4,14.7-5.1C95.2,30.5,93.5,29,90.6,29z"/>
		<path class="st0" d="M105.3,63.3l5.4-28.7c1.1-5.4,1.8-10.1,2.3-13.9h11.2l-0.9,7.1h0.2c4.1-5.6,9.4-8,15-8
			c7,0,10.9,4.2,10.9,11.6c0,2-0.3,5.1-0.8,7.3l-4.7,24.8h-12.5l4.4-23.6c0.3-1.5,0.5-3.2,0.5-4.8c0-3-1.1-5-4.2-5
			c-4.1,0-8.9,5.1-10.6,14.5l-3.6,18.9h-12.4V63.3z"/>
		<path class="st0" d="M150,63.3l5.4-28.7c1.1-5.4,1.8-10.1,2.3-13.9h11.2l-0.9,7.1h0.2c4.1-5.6,9.4-8,15-8c7,0,10.9,4.2,10.9,11.6
			c0,2-0.3,5.1-0.8,7.3l-4.7,24.8H176l4.4-23.6c0.3-1.5,0.5-3.2,0.5-4.8c0-3-1.1-5-4.2-5c-4.1,0-8.9,5.1-10.6,14.5l-3.6,18.9H150
			V63.3z"/>
		<path class="st0" d="M209.5,20.8l2.6,18.6c0.6,4.4,1.1,7.4,1.4,10.1h0.2c0.9-2.6,2-5.3,3.8-10l7.7-18.7h13.3l-15.3,30.5
			c-5.6,11.3-10.7,19-16.3,24.3c-5,4.7-10.9,6.8-13.7,7.3l-2.7-10.7c2-0.6,4.8-1.7,7.3-3.3c2.9-2,5.3-4.5,7-7.4
			c0.5-0.6,0.5-1.1,0.3-2.1l-8.5-38.5H209.5z"/>
	</g>
	<g>
		<path class="st0" d="M13.1,76.1c0,1.5-0.5,2.6-1.4,3.6c-0.9,0.9-2.1,1.4-3.5,1.4S5.9,80.7,5,79.7s-1.4-2.1-1.4-3.6V74
			c0-1.4,0.5-2.6,1.4-3.6c0.9-0.9,2-1.4,3.3-1.4c1.4,0,2.6,0.5,3.5,1.4c0.9,0.9,1.4,2.1,1.4,3.6V76.1z M11.6,74c0-1.1-0.3-2-0.9-2.7
			c-0.6-0.8-1.4-1.1-2.4-1.1c-0.9,0-1.7,0.3-2.3,1.1S5.3,72.8,5.3,74v2.1c0,1.1,0.3,2,0.8,2.7c0.6,0.8,1.4,1.1,2.3,1.1
			c1.1,0,1.8-0.3,2.4-1.1c0.6-0.8,0.9-1.5,0.9-2.7V74z"/>
		<path class="st0" d="M16.6,72.2l0.2,1.4c0.3-0.5,0.6-0.8,1.1-1.1c0.5-0.3,0.9-0.5,1.5-0.5c0.9,0,1.7,0.3,2.1,0.8
			c0.5,0.6,0.8,1.4,0.8,2.6V81h-1.7v-5.4c0-0.8-0.2-1.4-0.5-1.7c-0.3-0.3-0.8-0.5-1.4-0.5c-0.5,0-0.9,0.2-1.2,0.3
			c-0.3,0.2-0.6,0.5-0.9,0.9V81h-1.7v-8.8L16.6,72.2L16.6,72.2z"/>
		<path class="st0" d="M26.4,81h-1.7V68.4h1.7V81z"/>
		<path class="st0" d="M30.5,69.9h-1.7v-1.7h1.7V69.9z M30.5,81h-1.7v-8.8h1.7V81z"/>
		<path class="st0" d="M34.4,72.2l0.2,1.4c0.3-0.5,0.6-0.8,1.1-1.1c0.5-0.3,0.9-0.5,1.5-0.5c0.9,0,1.7,0.3,2.1,0.8
			c0.5,0.6,0.8,1.4,0.8,2.6V81h-1.5v-5.4c0-0.8-0.2-1.4-0.5-1.7c-0.3-0.3-0.8-0.5-1.4-0.5c-0.5,0-0.9,0.2-1.2,0.3
			c-0.3,0.2-0.6,0.5-0.9,0.9V81h-1.7v-8.8L34.4,72.2L34.4,72.2z"/>
		<path class="st0" d="M46.1,81.1c-1.2,0-2.1-0.5-2.9-1.2c-0.8-0.8-1.1-1.8-1.1-3.2v-0.3c0-1.2,0.3-2.3,1.1-3.2
			c0.8-0.8,1.7-1.2,2.6-1.2c1.2,0,2.1,0.3,2.7,1.1s0.9,1.7,0.9,2.9V77h-5.7l0,0c0,0.9,0.3,1.5,0.6,2.1c0.5,0.6,1.1,0.8,1.7,0.8
			s1.1,0,1.4-0.3c0.5-0.2,0.8-0.3,1.1-0.6l0.6,1.1c-0.3,0.3-0.8,0.6-1.2,0.8C47.3,81,46.7,81.1,46.1,81.1z M45.8,73.2
			c-0.6,0-1.1,0.2-1.4,0.6c-0.3,0.5-0.6,1.1-0.8,1.7l0,0h4.1v-0.2c0-0.6-0.2-1.2-0.5-1.5C47,73.6,46.4,73.2,45.8,73.2z"/>
		<path class="st0" d="M57.5,69.2l3.8,9.5l0,0l3.8-9.5h2V81h-1.7v-4.7l0.2-4.8l0,0l-3.8,9.4h-1.1l-3.8-9.4l0,0l0.2,4.7v4.7h-1.7V69
			h2.1V69.2z"/>
		<path class="st0" d="M75.1,81c0-0.3-0.2-0.5-0.2-0.8c0-0.2,0-0.5,0-0.6c-0.3,0.5-0.8,0.8-1.2,1.1c-0.5,0.3-1.1,0.5-1.5,0.5
			c-0.9,0-1.7-0.3-2.1-0.8c-0.5-0.5-0.8-1.1-0.8-2c0-0.9,0.3-1.5,1.1-2c0.6-0.5,1.7-0.8,2.7-0.8h1.7v-0.9c0-0.5-0.2-0.9-0.5-1.2
			c-0.3-0.3-0.8-0.5-1.4-0.5c-0.5,0-0.9,0.2-1.2,0.5c-0.3,0.3-0.5,0.6-0.5,0.9h-1.5l0,0c0-0.6,0.3-1.2,0.9-1.8
			c0.6-0.5,1.5-0.8,2.4-0.8c1.1,0,1.8,0.3,2.4,0.8c0.6,0.5,0.9,1.2,0.9,2.1V79c0,0.3,0,0.6,0,0.9c0,0.3,0.2,0.6,0.2,0.9h-1.5V81z
			 M72.5,79.7c0.6,0,1.1-0.2,1.5-0.5c0.5-0.3,0.8-0.6,0.9-1.1v-1.4h-1.8c-0.6,0-1.2,0.2-1.5,0.5c-0.5,0.3-0.6,0.8-0.6,1.2
			s0.2,0.8,0.3,0.9C71.6,79.7,72,79.7,72.5,79.7z"/>
		<path class="st0" d="M81,70.1v2.1h1.7v1.2H81v5.3c0,0.5,0.2,0.8,0.3,0.9c0.2,0.2,0.5,0.3,0.6,0.3s0.2,0,0.3,0c0.2,0,0.2,0,0.3-0.2
			l0.2,1.1c-0.2,0.2-0.3,0.2-0.5,0.3c-0.3,0-0.5,0.2-0.8,0.2c-0.6,0-1.2-0.2-1.5-0.6c-0.5-0.5-0.6-1.1-0.6-1.8v-5.3h-1.4v-1.2h1.4
			v-2.1H81V70.1z"/>
		<path class="st0" d="M88.2,81.1c-1.2,0-2.1-0.5-2.9-1.2c-0.8-0.8-1.1-1.8-1.1-3.2v-0.3c0-1.2,0.3-2.3,1.1-3.2
			c0.8-0.8,1.7-1.2,2.6-1.2c1.2,0,2.1,0.3,2.7,1.1c0.6,0.8,0.9,1.7,0.9,2.9V77h-5.7l0,0c0,0.9,0.3,1.5,0.6,2.1
			c0.5,0.6,1.1,0.8,1.7,0.8s1.1,0,1.4-0.3c0.5-0.2,0.8-0.3,1.1-0.6l0.6,1.1c-0.3,0.3-0.8,0.6-1.2,0.8C89.6,81,89,81.1,88.2,81.1z
			 M87.9,73.2c-0.6,0-1.1,0.2-1.4,0.6c-0.3,0.5-0.6,1.1-0.8,1.7l0,0h4.1v-0.2c0-0.6-0.2-1.2-0.5-1.5C89.1,73.6,88.7,73.2,87.9,73.2z
			"/>
		<path class="st0" d="M97.4,73.6h-0.8c-0.5,0-0.8,0.2-1.1,0.3c-0.3,0.2-0.5,0.5-0.6,0.9V81h-1.7v-8.8h1.4l0.2,1.2
			c0.3-0.5,0.6-0.8,0.9-1.1s0.8-0.5,1.2-0.5c0.2,0,0.3,0,0.3,0c0.2,0,0.2,0,0.3,0L97.4,73.6z"/>
		<path class="st0" d="M100.8,69.9h-1.7v-1.7h1.7V69.9z M100.8,81h-1.7v-8.8h1.7V81z"/>
		<path class="st0" d="M108.5,81c0-0.3-0.2-0.5-0.2-0.8c0-0.2,0-0.5,0-0.6c-0.3,0.5-0.8,0.8-1.2,1.1c-0.5,0.3-1.1,0.5-1.5,0.5
			c-0.9,0-1.7-0.3-2.1-0.8s-0.8-1.1-0.8-2c0-0.9,0.3-1.5,1.1-2c0.6-0.5,1.7-0.8,2.7-0.8h1.7v-0.9c0-0.5-0.2-0.9-0.5-1.2
			c-0.3-0.3-0.8-0.5-1.4-0.5c-0.5,0-0.9,0.2-1.2,0.5c-0.3,0.3-0.5,0.6-0.5,0.9h-1.5l0,0c0-0.6,0.3-1.2,0.9-1.8
			c0.6-0.5,1.5-0.8,2.4-0.8c1.1,0,1.8,0.3,2.4,0.8c0.6,0.5,0.9,1.2,0.9,2.1V79c0,0.3,0,0.6,0,0.9c0,0.3,0.2,0.6,0.2,0.9h-1.5V81z
			 M105.9,79.7c0.6,0,1.1-0.2,1.5-0.5c0.5-0.3,0.8-0.6,0.9-1.1v-1.4h-1.8c-0.6,0-1.2,0.2-1.5,0.5c-0.5,0.3-0.6,0.8-0.6,1.2
			s0.2,0.8,0.3,0.9C104.8,79.6,105.4,79.7,105.9,79.7z"/>
		<path class="st0" d="M113.9,81h-1.7V68.4h1.7V81z"/>
		<path class="st0" d="M121.5,78.7c0-0.3-0.2-0.6-0.5-0.9c-0.3-0.2-0.8-0.5-1.5-0.6c-1.1-0.3-1.8-0.6-2.4-0.9
			c-0.6-0.5-0.8-0.9-0.8-1.7s0.3-1.4,0.9-1.8c0.6-0.5,1.4-0.8,2.4-0.8c1.1,0,1.8,0.3,2.4,0.8c0.6,0.5,0.9,1.2,0.9,2l0,0h-1.5
			c0-0.5-0.2-0.8-0.5-1.1c-0.3-0.3-0.8-0.5-1.2-0.5c-0.6,0-1.1,0.2-1.2,0.3c-0.3,0.3-0.5,0.6-0.5,0.9c0,0.3,0.2,0.6,0.3,0.8
			c0.3,0.2,0.8,0.3,1.5,0.6c1.1,0.3,2,0.6,2.4,0.9c0.6,0.5,0.8,0.9,0.8,1.7s-0.3,1.4-0.9,1.8c-0.6,0.5-1.5,0.8-2.4,0.8
			c-1.1,0-2-0.3-2.6-0.9c-0.6-0.6-0.9-1.2-0.9-2l0,0h1.5c0,0.6,0.3,0.9,0.6,1.2c0.5,0.3,0.9,0.5,1.4,0.5c0.6,0,1.1-0.2,1.4-0.3
			C121.3,79.3,121.5,79,121.5,78.7z"/>
		<path class="st0" d="M131.1,79.7h5.6V81h-7.1V69.2h1.7v10.6H131.1z"/>
		<path class="st0" d="M139.9,69.9h-1.7v-1.7h1.7V69.9z M139.9,81h-1.7v-8.8h1.7V81z"/>
		<path class="st0" d="M149.7,76.9c0,1.2-0.3,2.3-0.9,3c-0.6,0.8-1.5,1.2-2.6,1.2c-0.6,0-1.1-0.2-1.5-0.3c-0.5-0.2-0.8-0.6-1.1-1.1
			l-0.2,1.2h-1.4V68.4h1.7v4.8c0.3-0.5,0.6-0.8,1.1-0.9c0.5-0.2,0.9-0.3,1.4-0.3c1.1,0,2,0.5,2.6,1.4c0.6,0.9,0.9,2,0.9,3.3V76.9z
			 M148.2,76.7c0-1.1-0.2-1.8-0.6-2.4c-0.3-0.6-0.9-0.9-1.7-0.9c-0.5,0-0.9,0.2-1.2,0.3c-0.3,0.3-0.6,0.6-0.8,0.9v3.8
			c0.2,0.5,0.5,0.8,0.8,1.1c0.3,0.3,0.8,0.3,1.2,0.3c0.8,0,1.4-0.3,1.7-0.8c0.3-0.6,0.6-1.2,0.6-2.1V76.7z"/>
		<path class="st0" d="M155.8,73.6H155c-0.5,0-0.8,0.2-1.1,0.3c-0.3,0.2-0.5,0.5-0.6,0.9V81h-1.7v-8.8h1.4l0.2,1.2
			c0.3-0.5,0.6-0.8,0.9-1.1c0.3-0.3,0.8-0.5,1.2-0.5c0.2,0,0.3,0,0.3,0c0.2,0,0.2,0,0.3,0L155.8,73.6z"/>
		<path class="st0" d="M162.7,81c0-0.3-0.2-0.5-0.2-0.8c0-0.2,0-0.5,0-0.6c-0.3,0.5-0.8,0.8-1.2,1.1c-0.5,0.3-1.1,0.5-1.5,0.5
			c-0.9,0-1.7-0.3-2.1-0.8s-0.8-1.1-0.8-2c0-0.9,0.3-1.5,1.1-2c0.6-0.5,1.7-0.8,2.7-0.8h1.7v-0.9c0-0.5-0.2-0.9-0.5-1.2
			c-0.3-0.3-0.8-0.5-1.4-0.5c-0.5,0-0.9,0.2-1.2,0.5c-0.3,0.3-0.5,0.6-0.5,0.9h-1.5l0,0c0-0.6,0.3-1.2,0.9-1.8
			c0.6-0.5,1.5-0.8,2.4-0.8c1.1,0,1.8,0.3,2.4,0.8s0.9,1.2,0.9,2.1V79c0,0.3,0,0.6,0,0.9c0,0.3,0.2,0.6,0.2,0.9h-1.5V81z
			 M160.1,79.7c0.6,0,1.1-0.2,1.5-0.5c0.5-0.3,0.8-0.6,0.9-1.1v-1.4h-1.8c-0.6,0-1.2,0.2-1.5,0.5c-0.5,0.3-0.6,0.8-0.6,1.2
			s0.2,0.8,0.3,0.9C159.1,79.6,159.5,79.7,160.1,79.7z"/>
		<path class="st0" d="M170.6,73.6h-0.8c-0.5,0-0.8,0.2-1.1,0.3c-0.3,0.2-0.5,0.5-0.6,0.9V81h-1.7v-8.8h1.4l0.2,1.2
			c0.3-0.5,0.6-0.8,0.9-1.1c0.3-0.3,0.8-0.5,1.2-0.5c0.2,0,0.3,0,0.3,0c0.2,0,0.2,0,0.3,0L170.6,73.6z"/>
		<path class="st0" d="M174.9,77.8l0.3,1.1l0,0l2.1-6.6h1.8l-3.6,10.1c-0.2,0.6-0.6,1.1-0.9,1.5c-0.5,0.5-0.9,0.6-1.7,0.6
			c-0.2,0-0.3,0-0.5,0c-0.2,0-0.3,0-0.5-0.2l0.2-1.2c0,0,0,0,0.3,0c0.2,0,0.3,0,0.5,0c0.3,0,0.6-0.2,0.9-0.5
			c0.2-0.3,0.5-0.6,0.6-1.1l0.5-0.9l-3.2-8.6h1.8L174.9,77.8z"/>
	</g>
</g>
</svg>
